…
``` r
city_df = 
  homicide_df %>%
  mutate(
    city_state = paste(city, state, sep = ", ")) %>%
   mutate(
    city_state = if_else(city_state == "Tulsa, AL", "Tulsa, OK", city_state))  %>%
  group_by(city_state) %>%
  summarize(
    homicides_total = n(),
    homicides_unresolved = sum(disposition != "Closed by arrest"))

city_df
## # A tibble: 50 × 3
##    city_state      homicides_total homicides_unresolved
##    <chr>                     <int>                <int>
##  1 Albuquerque, NM             378                  146
##  2 Atlanta, GA                 973                  373
##  3 Baltimore, MD              2827                 1825
##  4 Baton Rouge, LA             424                  196
##  5 Birmingham, AL              800                  347
##  6 Boston, MA                  614                  310
##  7 Buffalo, NY                 521                  319
##  8 Charlotte, NC               687                  206
##  9 Chicago, IL                5535                 4073
## 10 Cincinnati, OH              694                  309
## # … with 40 more rows
```
…
city_nest_df %>% 
  mutate(prop_estimates = map(data, prop_conflimits)) %>% 
  unnest(data, prop_estimates) %>% 
  rename(
    prop_unresolved_est = estimate,
    conf_lower = conf.low,
    conf_upper = conf.high) -> city_prop_df
## Warning: unnest() has a new interface. See ?unnest for details.
## Try `df %>% unnest(c(data, prop_estimates))`, with `mutate()` if needed

city_prop_df
## # A tibble: 50 × 6
##    city_state      homicides_total homicides_unresolved prop_u…¹ conf_…² conf_…³
##    <chr>                     <int>                <int>    <dbl>   <dbl>   <dbl>
##  1 Albuquerque, NM             378                  146    0.386   0.337   0.438
##  2 Atlanta, GA                 973                  373    0.383   0.353   0.415
##  3 Baltimore, MD              2827                 1825    0.646   0.628   0.663
##  4 Baton Rouge, LA             424                  196    0.462   0.414   0.511
##  5 Birmingham, AL              800                  347    0.434   0.399   0.469
##  6 Boston, MA                  614                  310    0.505   0.465   0.545
##  7 Buffalo, NY                 521                  319    0.612   0.569   0.654
##  8 Charlotte, NC               687                  206    0.300   0.266   0.336
##  9 Chicago, IL                5535                 4073    0.736   0.724   0.747
## 10 Cincinnati, OH              694                  309    0.445   0.408   0.483
## # … with 40 more rows, and abbreviated variable names ¹​prop_unresolved_est,
## #   ²​conf_lower, ³​conf_upper
```
…
``` r
df_mu_0 = 
  expand_grid(
    n = 30,
    mu = 0,
    sigma = 5,
    dataset = 1:5000) %>% 
  mutate(
    estimates_df = 
      map(.x = mu, ~estmean_pvalue(mu = .x))) %>% 
  unnest(estimates_df)

df_mu_0
## # A tibble: 5,000 × 6
##        n    mu sigma dataset mu_hat p_value
##    <dbl> <dbl> <dbl>   <int>  <dbl>   <dbl>
##  1    30     0     5       1  0.520   0.549
##  2    30     0     5       2  1.11    0.188
##  3    30     0     5       3  1.01    0.220
##  4    30     0     5       4 -0.835   0.309
##  5    30     0     5       5 -0.892   0.365
##  6    30     0     5       6  0.557   0.503
##  7    30     0     5       7  1.04    0.238
##  8    30     0     5       8  1.40    0.144
##  9    30     0     5       9  1.15    0.180
## 10    30     0     5      10 -0.500   0.634
## # … with 4,990 more rows
```
…
``` r
df_mu_all = 
  expand_grid(
    n = 30,
    mu = c(1, 2, 3, 4, 5, 6),
    sigma = 5,
    dataset = 1:5000) %>% 
  mutate(
    estimates_df = 
      map(.x = mu, ~estmean_pvalue(mu = .x))) %>% 
  unnest(estimates_df)

df_mu_all
## # A tibble: 30,000 × 6
##        n    mu sigma dataset mu_hat  p_value
##    <dbl> <dbl> <dbl>   <int>  <dbl>    <dbl>
##  1    30     1     5       1  1.59  0.0682  
##  2    30     1     5       2  0.911 0.287   
##  3    30     1     5       3  1.75  0.0909  
##  4    30     1     5       4  1.96  0.0306  
##  5    30     1     5       5  1.84  0.0847  
##  6    30     1     5       6  3.35  0.000262
##  7    30     1     5       7  1.70  0.0547  
##  8    30     1     5       8  0.954 0.308   
##  9    30     1     5       9  0.404 0.643   
## 10    30     1     5      10  1.51  0.0914  
## # … with 29,990 more rows
```
…
